{
    "version": "1.0.0-*",
    "description": "MultiService.Services Class Library",
    "authors": [ "Lakhan" ],
    "tags": [ "" ],
    "projectUrl": "",
    "licenseUrl": "",

    "dependencies": {
        "System.Collections": "4.0.10-beta-23019",
        "System.Linq": "4.0.0-beta-23019",
        "System.Threading": "4.0.10-beta-23019",
        "System.Runtime": "4.0.10-beta-23019",
        "Microsoft.CSharp": "4.0.0-beta-23019",
        "EntityFramework": "6.4.4"
    },

    "frameworks": {
        "dotnet": { }
    }
}
